<?xml version="1.0" encoding="UTF-8"?>

<svg version="1.2" baseProfile="tiny" width="210mm" height="210mm" viewBox="0 0 21000 21000" preserveAspectRatio="xMidYMid" fill-rule="evenodd" stroke-width="28.222" stroke-linejoin="round" xmlns="http://www.w3.org/2000/svg" xmlns:xlink="http://www.w3.org/1999/xlink" xml:space="preserve">
 <g visibility="visible" id="MasterSlide_1_標準">
  <desc>Master slide
  </desc>
  <rect fill="none" stroke="none" x="0" y="0" width="21000" height="21000"/>
 </g>
 <g visibility="visible" id="Slide_1_page3">
  <g>
   <path fill="rgb(136,187,136)" stroke="none" d="M 10500,0 C 16453,0 21000,4547 21000,10500 21000,16453 16453,21000 10500,21000 4547,21000 0,16453 0,10500 0,4547 4547,0 10500,0 Z M 10498,2136 C 15239,2136 18861,5757 18861,10498 18861,15239 15239,18861 10498,18861 5757,18861 2136,15239 2136,10498 2136,5757 5757,2136 10498,2136 Z"/>
   <rect fill="none" stroke="none" x="0" y="0" width="21001" height="21001"/>
   <rect fill="none" stroke="none" x="0" y="0" width="21001" height="21001"/>
  </g>
  <g id="DrawingGroup_1">
   <g>
    <path fill="rgb(136,187,136)" stroke="none" d="M 8586,7310 L 12432,7310 14355,10506 12432,13703 8586,13703 6664,10506 8586,7310 Z"/>
    <path fill="none" stroke="rgb(255,255,255)" id="Drawing_2_0" stroke-width="400" d="M 8586,7310 L 12432,7310 14355,10506 12432,13703 8586,13703 6664,10506 8586,7310 Z"/>
    <rect fill="none" stroke="none" x="6664" y="7310" width="7691" height="6393"/>
   </g>
   <g id="DrawingGroup_2">
    <g>
     <path fill="rgb(136,187,136)" stroke="none" d="M 13180,8021 L 13872,6468 14653,7778 13961,9329 13180,8021 Z"/>
     <path fill="none" stroke="rgb(255,255,255)" id="Drawing_3_0" stroke-width="400" d="M 13180,8021 L 13872,6468 14653,7778 13961,9329 13180,8021 Z"/>
     <rect fill="none" stroke="none" x="12823" y="6469" width="2188" height="2862"/>
    </g>
    <g>
     <path fill="rgb(136,187,136)" stroke="none" d="M 14902,4408 L 16958,4408 17986,6013 16958,7618 14902,7618 13875,6013 14902,4408 Z"/>
     <path fill="none" stroke="rgb(255,255,255)" id="Drawing_4_0" stroke-width="400" d="M 14902,4408 L 16958,4408 17986,6013 16958,7618 14902,7618 13875,6013 14902,4408 Z"/>
     <rect fill="none" stroke="none" x="13875" y="4409" width="4111" height="3210"/>
    </g>
   </g>
   <g id="DrawingGroup_3">
    <g>
     <path fill="rgb(136,187,136)" stroke="none" d="M 7786,8020 L 7094,6467 6312,7779 7004,9331 7786,8020 Z"/>
     <path fill="none" stroke="rgb(255,255,255)" id="Drawing_5_0" stroke-width="400" d="M 7786,8020 L 7094,6467 6312,7779 7004,9331 7786,8020 Z"/>
     <rect fill="none" stroke="none" x="5955" y="6468" width="2189" height="2865"/>
    </g>
    <g>
     <path fill="rgb(136,187,136)" stroke="none" d="M 6066,4408 L 4010,4408 2982,6013 4010,7618 6066,7618 7093,6013 6066,4408 Z"/>
     <path fill="none" stroke="rgb(255,255,255)" id="Drawing_6_0" stroke-width="400" d="M 6066,4408 L 4010,4408 2982,6013 4010,7618 6066,7618 7093,6013 6066,4408 Z"/>
     <rect fill="none" stroke="none" x="2983" y="4409" width="4111" height="3210"/>
    </g>
   </g>
   <g id="DrawingGroup_4">
    <g id="DrawingGroup_5">
     <g>
      <path fill="rgb(136,187,136)" stroke="none" d="M 13212,12975 L 13905,14529 14686,13219 13994,11667 13212,12975 Z"/>
      <path fill="none" stroke="rgb(255,255,255)" id="Drawing_7_0" stroke-width="400" d="M 13212,12975 L 13905,14529 14686,13219 13994,11667 13212,12975 Z"/>
      <rect fill="none" stroke="none" x="12856" y="11667" width="2189" height="2863"/>
     </g>
     <g>
      <path fill="rgb(136,187,136)" stroke="none" d="M 14935,16592 L 16991,16592 18019,14987 16991,13381 14935,13381 13908,14987 14935,16592 Z"/>
      <path fill="none" stroke="rgb(255,255,255)" id="Drawing_8_0" stroke-width="400" d="M 14935,16592 L 16991,16592 18019,14987 16991,13381 14935,13381 13908,14987 14935,16592 Z"/>
      <rect fill="none" stroke="none" x="13907" y="13382" width="4112" height="3212"/>
     </g>
    </g>
    <g id="DrawingGroup_6">
     <g>
      <path fill="rgb(136,187,136)" stroke="none" d="M 7818,12978 L 7126,14531 6345,13221 7037,11670 7818,12978 Z"/>
      <path fill="none" stroke="rgb(255,255,255)" id="Drawing_9_0" stroke-width="400" d="M 7818,12978 L 7126,14531 6345,13221 7037,11670 7818,12978 Z"/>
      <rect fill="none" stroke="none" x="5989" y="11669" width="2188" height="2862"/>
     </g>
     <g>
      <path fill="rgb(136,187,136)" stroke="none" d="M 6099,16592 L 4043,16592 3015,14987 4043,13381 6099,13381 7126,14987 6099,16592 Z"/>
      <path fill="none" stroke="rgb(255,255,255)" id="Drawing_10_0" stroke-width="400" d="M 6099,16592 L 4043,16592 3015,14987 4043,13381 6099,13381 7126,14987 6099,16592 Z"/>
      <rect fill="none" stroke="none" x="3015" y="13382" width="4112" height="3212"/>
     </g>
    </g>
   </g>
  </g>
 </g>
</svg>